monitr • monitr
…
optimize_exposure(), given a dataset with \(n * 2\) rows for each policy (where n is the number of years the policy is in force), it optimizes the computation of the exposure for each calendar year by taking into account the birthday of the policyholder;

compute_expectedclaim(), given as input a dataframe of insurance policies coming out from optimize_exposure(), it returns a new dataframe with the associated expected claim for each age of the policyhoder.

calculate_IBNR(), given as input a data frame of insurance policies coming out from the function optimize_exposure(), and a table with IBNR factors, calculate the IBNR claims.

The datasets

In the package there are 3 data frames of simulated life insurance policies, one for each possible kind of dataset structure, that is, one single row for each policy (onerow_lifepolicies), n rows for each policy (raw_lifepolicies), \(n * 2\) rows for each policy (optimal form, lifepolicies), where n is the number of years the contract is in force. All the datasets have the same 2,500 policies and the same variables.

The data set lifepolicies is the optimal one for the usage of the package’s functions.

data("lifepolicies")
lifepolicies
#> # A tibble: 27,054 x 11
#>    Policy_id Inception_date Term_date  Birth_date Gender    UY    CY Claim_date
#>        <dbl> <date>         <date>     <date>     <chr>  <dbl> <int> <date>    
#>  1   1000503 2013-05-01     2022-05-01 1943-01-15 M       2013  2013 2099-12-31
#>  2   1000503 2013-05-01     2022-05-01 1943-01-15 M       2013  2014 2099-12-31
#>  3   1000503 2013-05-01     2022-05-01 1943-01-15 M       2013  2015 2099-12-31
#>  4   1000503 2013-05-01     2022-05-01 1943-01-15 M       2013  2016 2099-12-31
#>  5   1000503 2013-05-01     2022-05-01 1943-01-15 M       2013  2017 2099-12-31
#>  6   1000503 2013-05-01     2022-05-01 1943-01-15 M       2013  2018 2099-12-31
#>  7   1000503 2013-05-01     2022-05-01 1943-01-15 M       2013  2019 2099-12-31
#>  8   1000503 2013-05-01     2022-05-01 1943-01-15 M       2013  2020 2099-12-31
#>  9   1000503 2013-05-01     2022-05-01 1943-01-15 M       2013  2021 2099-12-31
#> 10   1000503 2013-05-01     2022-05-01 1943-01-15 M       2013  2022 2099-12-31
#> # ... with 27,044 more rows, and 3 more variables: Claim <dbl>,
#> #   Lapse_date <date>, Lapse <dbl>
…
Claim 1 if the year of `Claim_date is eqaul to CY, o otherwise.

Lapse_date date when policy lapsed, if so, otherwise 2099-12-31.

Lapse 1 if year of Lapse_date is equal to CY, 0 otherwise.

Making the data suitable.

In order to use the functions for the optimal computation of the exposure, the expected claim and the IBNR claim, the data frame should be transformed in a suitable format, that is, each policy in the data frame needs a number of row equal to \(n * 2\), where n is the number of years the contract is in force. This special structure of the data frame is required for computing the exposure of each policyholder, in each current year, for two different ages (before and after the anniversary date).

expand_portfolio()

data("onerow_lifepolicies")
onerow_lifepolicies
#> # A tibble: 2,500 x 10
#>    Policy_id Inception_date Term_date  Birth_date Gender    UY Claim_date Claim
#>        <dbl> <date>         <date>     <date>     <chr>  <dbl> <date>     <dbl>
#>  1   1000503 2013-05-01     2022-05-01 1943-01-15 M       2013 2099-12-31     0
#>  2   1005404 2014-08-01     2020-08-01 1943-03-17 M       2014 2099-12-31     0
#>  3   1009039 2014-06-01     2021-06-01 1945-11-25 F       2014 2099-12-31     0
#>  4   1009374 2015-03-01     2026-03-01 1952-04-07 F       2015 2099-12-31     0
#>  5   1018324 2012-11-01     2018-11-01 1938-06-14 M       2012 2017-11-30     1
#>  6   1019545 2013-11-01     2017-11-01 1940-11-06 M       2013 2014-01-05     1
#>  7   1020568 2016-06-01     2019-06-01 1949-08-26 F       2016 2017-09-16     1
#>  8   1020763 2015-06-01     2023-06-01 1955-03-20 F       2015 2016-03-10     1
#>  9   1036615 2015-03-01     2022-03-01 1941-03-14 M       2015 2017-05-07     1
#> 10   1044618 2013-08-01     2017-08-01 1955-10-09 M       2013 2014-03-14     1
#> # ... with 2,490 more rows, and 2 more variables: Lapse_date <date>,
#> #   Lapse <dbl>

As shown by the tibble above, the data frame onerow_lifepolicies has one single row for each policy. In order to overcome this problem, the function expand_portfolio() can be used. The function expand the dataset, in order to make it suitable(\(n * 2\) rows for each policy) for the other functions in the package monitr.

onerow_lifepolicies %>% 
  expand_portfolio(.polnr = Policy_id, .claim = Claim, .claimdate = Claim_date,
                   .inceptiondate = Inception_date, .termdate = Term_date,
                   .lapse = Lapse, .lapsedate = Lapse_date)
#> # A tibble: 27,054 x 11
#>    Policy_id Inception_date Term_date  Birth_date Gender    UY    CY Claim_date
#>        <dbl> <date>         <date>     <date>     <chr>  <dbl> <int> <date>    
#>  1   1000503 2013-05-01     2022-05-01 1943-01-15 M       2013  2013 2099-12-31
#>  2   1000503 2013-05-01     2022-05-01 1943-01-15 M       2013  2014 2099-12-31
#>  3   1000503 2013-05-01     2022-05-01 1943-01-15 M       2013  2015 2099-12-31
#>  4   1000503 2013-05-01     2022-05-01 1943-01-15 M       2013  2016 2099-12-31
#>  5   1000503 2013-05-01     2022-05-01 1943-01-15 M       2013  2017 2099-12-31
#>  6   1000503 2013-05-01     2022-05-01 1943-01-15 M       2013  2018 2099-12-31
#>  7   1000503 2013-05-01     2022-05-01 1943-01-15 M       2013  2019 2099-12-31
#>  8   1000503 2013-05-01     2022-05-01 1943-01-15 M       2013  2020 2099-12-31
#>  9   1000503 2013-05-01     2022-05-01 1943-01-15 M       2013  2021 2099-12-31
#> 10   1000503 2013-05-01     2022-05-01 1943-01-15 M       2013  2022 2099-12-31
#> # ... with 27,044 more rows, and 3 more variables: Claim <dbl>,
#> #   Lapse_date <date>, Lapse <dbl>
…
.inceptiondate takes on the column’s name of the data frame with the starting date of each contract.

.termdate requires the column of the data frame with the expiry date of the policies.

.lapse requires a column of the dataset with 1 if the lapse occurred for the corresponding policy in the current year of evaluation and 0 otherwise.

.lapsedate requires a column of the data frame with the associated date of when the policy lapsed (if policy did not lapse, then it is set to 2099-31-12).

After having used the function expand_portfolio(), the resulting dataset of insurance policies can be used as input in the function optimize_exposure().

duplicate_portfolio()

data("raw_lifepolicies")
raw_lifepolicies
#> # A tibble: 13,527 x 11
#>    Policy_id Inception_date Term_date  Birth_date Gender    UY    CY Claim_date
#>        <dbl> <date>         <date>     <date>     <chr>  <dbl> <int> <date>    
#>  1   1000503 2013-05-01     2022-05-01 1943-01-15 M       2013  2013 2099-12-31
#>  2   1000503 2013-05-01     2022-05-01 1943-01-15 M       2013  2014 2099-12-31
#>  3   1000503 2013-05-01     2022-05-01 1943-01-15 M       2013  2015 2099-12-31
#>  4   1000503 2013-05-01     2022-05-01 1943-01-15 M       2013  2016 2099-12-31
#>  5   1000503 2013-05-01     2022-05-01 1943-01-15 M       2013  2017 2099-12-31
#>  6   1000503 2013-05-01     2022-05-01 1943-01-15 M       2013  2018 2099-12-31
#>  7   1000503 2013-05-01     2022-05-01 1943-01-15 M       2013  2019 2099-12-31
#>  8   1000503 2013-05-01     2022-05-01 1943-01-15 M       2013  2020 2099-12-31
#>  9   1000503 2013-05-01     2022-05-01 1943-01-15 M       2013  2021 2099-12-31
#> 10   1000503 2013-05-01     2022-05-01 1943-01-15 M       2013  2022 2099-12-31
#> # ... with 13,517 more rows, and 3 more variables: Claim <dbl>,
#> #   Lapse_date <date>, Lapse <dbl>

The above dataset (raw_lifepolicies) shows a number of rows for each policy that is equal to \(n\). To make the data frame suitable for the function optimize_exposure() it is needed to use the function duplicate_portfolio(), which just duplicates each row of the data frame, such that the resulting data frame has \(n * 2\) rows for each policy.

raw_lifepolicies %>% 
  duplicate_portfolio(.polnr = Policy_id)
#> # A tibble: 27,054 x 11
#>    Policy_id Inception_date Term_date  Birth_date Gender    UY    CY Claim_date
#>        <dbl> <date>         <date>     <date>     <chr>  <dbl> <int> <date>    
#>  1   1000503 2013-05-01     2022-05-01 1943-01-15 M       2013  2013 2099-12-31
#>  2   1000503 2013-05-01     2022-05-01 1943-01-15 M       2013  2014 2099-12-31
#>  3   1000503 2013-05-01     2022-05-01 1943-01-15 M       2013  2015 2099-12-31
#>  4   1000503 2013-05-01     2022-05-01 1943-01-15 M       2013  2016 2099-12-31
#>  5   1000503 2013-05-01     2022-05-01 1943-01-15 M       2013  2017 2099-12-31
#>  6   1000503 2013-05-01     2022-05-01 1943-01-15 M       2013  2018 2099-12-31
#>  7   1000503 2013-05-01     2022-05-01 1943-01-15 M       2013  2019 2099-12-31
#>  8   1000503 2013-05-01     2022-05-01 1943-01-15 M       2013  2020 2099-12-31
#>  9   1000503 2013-05-01     2022-05-01 1943-01-15 M       2013  2021 2099-12-31
#> 10   1000503 2013-05-01     2022-05-01 1943-01-15 M       2013  2022 2099-12-31
#> # ... with 27,044 more rows, and 3 more variables: Claim <dbl>,
#> #   Lapse_date <date>, Lapse <dbl>
…
.claimdate requires a column of the data frame with the associated date of when the claim occurred (if not claim occurred, then it is set to 2099-31-12).

.lapsedate requires a column of the data frame with the associated date of when the policy lapsed (if policy did not lapse, then it is set to 2099-31-12).

.birthdate takes on a column of .data with the birthday date of the policyholders.

.gender requires a column of .data with the gender of the policyholders.

lifepolicies %>%  
  optimize_exposure(.polnr = Policy_id, .inceptiondate = Inception_date,
                    .termdate = Term_date, .claimdate = Claim_date,
                    .lapsedate = Lapse_date, .birthdate = Birth_date,
                    .gender = Gender)
#> # A tibble: 25,595 x 34
#>    Policy_id Inception_date Term_date  Birth_date Gender    UY    CY Claim_date
#>        <dbl> <date>         <date>     <date>     <chr>  <dbl> <dbl> <date>    
#>  1   1000503 2013-05-01     2022-05-01 1943-01-15 M       2013  2013 2099-12-31
#>  2   1000503 2013-05-01     2022-05-01 1943-01-15 M       2013  2014 2099-12-31
#>  3   1000503 2013-05-01     2022-05-01 1943-01-15 M       2013  2014 2099-12-31
#>  4   1000503 2013-05-01     2022-05-01 1943-01-15 M       2013  2015 2099-12-31
#>  5   1000503 2013-05-01     2022-05-01 1943-01-15 M       2013  2015 2099-12-31
#>  6   1000503 2013-05-01     2022-05-01 1943-01-15 M       2013  2016 2099-12-31
#>  7   1000503 2013-05-01     2022-05-01 1943-01-15 M       2013  2016 2099-12-31
#>  8   1000503 2013-05-01     2022-05-01 1943-01-15 M       2013  2017 2099-12-31
#>  9   1000503 2013-05-01     2022-05-01 1943-01-15 M       2013  2017 2099-12-31
#> 10   1000503 2013-05-01     2022-05-01 1943-01-15 M       2013  2018 2099-12-31
#> # ... with 25,585 more rows, and 26 more variables: Claim <dbl>,
#> #   Lapse_date <date>, Lapse <dbl>, gender <chr>, inception <date>,
#> #   year_claim <dbl>, year_lapse <dbl>, id_row <int>, policy_duration <dbl>,
#> #   claims <dbl>, lapses <dbl>, renewal_date <date>, valuation_date <date>,
#> #   inception_year <date>, end_year <date>, inception_valuation_date <date>,
#> #   end_valuation_date <date>, anniversary_date <date>, AGE0 <dbl>, AGE1 <dbl>,
#> #   DAY_AGE0 <dbl>, DAY_AGE1 <dbl>, EXPOSURE_YEAR_AGE0 <dbl>,
#> #   EXPOSURE_YEAR_AGE1 <dbl>, EXPOSURE_IN_YEAR <dbl>,
#> #   EXPOSURE_IN_YEAR_LAPSE <dbl>
…
.data, A data frame in the format provided by the function optimize_exposure();

.table requires a mortality table with at least the two columns specified below;

.age takes on the .table’s column with the age associated to each qx;

.gender requires a column of .table with the gender associated with each qx;

.qx the ,.table’s column with the probabilities qx (note that it has to be per 1000).

The package monitr is equiped with a sample mortality table, SI2006, shown below.

data("SI2006")
SI2006
#> # A tibble: 240 x 3
#>      AGE GENDER    qx
#>    <int> <chr>  <dbl>
#>  1     0 M      3.98 
#>  2     0 F      3.32 
#>  3     1 M      0.270
#>  4     1 F      0.199
#>  5     2 M      0.197
#>  6     2 F      0.155
#>  7     3 M      0.151
#>  8     3 F      0.126
#>  9     4 M      0.123
#> 10     4 F      0.107
#> # ... with 230 more rows

Below is reported a an example of application of the function compute_expectedclaim().

lifepolicies %>% 
   optimize_exposure(.polnr = Policy_id, .inceptiondate = Inception_date,
                    .termdate = Term_date, .claimdate = Claim_date,
                    .lapsedate = Lapse_date, .birthdate = Birth_date,
                    .gender = Gender) %>% 
  compute_expectedclaim(.table = SI2006, .age = AGE, .gender = GENDER,
                        .qx = qx)
#> # A tibble: 25,595 x 38
#>    Policy_id Inception_date Term_date  Birth_date Gender    UY    CY Claim_date
#>        <dbl> <date>         <date>     <date>     <chr>  <dbl> <dbl> <date>    
#>  1   1000503 2013-05-01     2022-05-01 1943-01-15 M       2013  2013 2099-12-31
#>  2   1000503 2013-05-01     2022-05-01 1943-01-15 M       2013  2014 2099-12-31
#>  3   1000503 2013-05-01     2022-05-01 1943-01-15 M       2013  2014 2099-12-31
#>  4   1000503 2013-05-01     2022-05-01 1943-01-15 M       2013  2015 2099-12-31
#>  5   1000503 2013-05-01     2022-05-01 1943-01-15 M       2013  2015 2099-12-31
#>  6   1000503 2013-05-01     2022-05-01 1943-01-15 M       2013  2016 2099-12-31
#>  7   1000503 2013-05-01     2022-05-01 1943-01-15 M       2013  2016 2099-12-31
#>  8   1000503 2013-05-01     2022-05-01 1943-01-15 M       2013  2017 2099-12-31
#>  9   1000503 2013-05-01     2022-05-01 1943-01-15 M       2013  2017 2099-12-31
#> 10   1000503 2013-05-01     2022-05-01 1943-01-15 M       2013  2018 2099-12-31
#> # ... with 25,585 more rows, and 30 more variables: Claim <dbl>,
#> #   Lapse_date <date>, Lapse <dbl>, gender <chr>, inception <date>,
#> #   year_claim <dbl>, year_lapse <dbl>, id_row <int>, policy_duration <dbl>,
#> #   claims <dbl>, lapses <dbl>, renewal_date <date>, valuation_date <date>,
#> #   inception_year <date>, end_year <date>, inception_valuation_date <date>,
#> #   end_valuation_date <date>, anniversary_date <date>, AGE0 <dbl>, AGE1 <dbl>,
#> #   DAY_AGE0 <dbl>, DAY_AGE1 <dbl>, EXPOSURE_YEAR_AGE0 <dbl>,
#> #   EXPOSURE_YEAR_AGE1 <dbl>, EXPOSURE_IN_YEAR <dbl>,
#> #   EXPOSURE_IN_YEAR_LAPSE <dbl>, qx.x <dbl>, qx.y <dbl>,
…
.ibnrfactor the column of .ibnrtable with the ibnr factors.

.cy the column of ibnrtable with the corresponding calendar year of the IBNR factors.

lifepolicies %>%
  optimize_exposure(.polnr = Policy_id, .inceptiondate = Inception_date,
                    .termdate = Term_date, .claimdate = Claim_date,
                    .lapsedate = Lapse_date, .birthdate = Birth_date,
                    .gender = Gender) %>%
  compute_expectedclaim(.table = SI2006, .age = AGE,
                        .gender = GENDER, .qx = qx) %>%
  calculate_IBNR(.ibnrtable = IBNR_factors_CQP,
                 .ibnrfactor = IBNR_factor, .cy = CY)
#> # A tibble: 25,595 x 40
#>    Policy_id Inception_date Term_date  Birth_date Gender    UY    CY Claim_date
#>        <dbl> <date>         <date>     <date>     <chr>  <dbl> <dbl> <date>    
#>  1   1000503 2013-05-01     2022-05-01 1943-01-15 M       2013  2013 2099-12-31
#>  2   1000503 2013-05-01     2022-05-01 1943-01-15 M       2013  2014 2099-12-31
#>  3   1000503 2013-05-01     2022-05-01 1943-01-15 M       2013  2014 2099-12-31
#>  4   1000503 2013-05-01     2022-05-01 1943-01-15 M       2013  2015 2099-12-31
#>  5   1000503 2013-05-01     2022-05-01 1943-01-15 M       2013  2015 2099-12-31
#>  6   1000503 2013-05-01     2022-05-01 1943-01-15 M       2013  2016 2099-12-31
#>  7   1000503 2013-05-01     2022-05-01 1943-01-15 M       2013  2016 2099-12-31
#>  8   1000503 2013-05-01     2022-05-01 1943-01-15 M       2013  2017 2099-12-31
#>  9   1000503 2013-05-01     2022-05-01 1943-01-15 M       2013  2017 2099-12-31
#> 10   1000503 2013-05-01     2022-05-01 1943-01-15 M       2013  2018 2099-12-31
#> # ... with 25,585 more rows, and 32 more variables: Claim <dbl>,
#> #   Lapse_date <date>, Lapse <dbl>, gender <chr>, inception <date>,
#> #   year_claim <dbl>, year_lapse <dbl>, id_row <int>, policy_duration <dbl>,
#> #   claims <dbl>, lapses <dbl>, renewal_date <date>, valuation_date <date>,
#> #   inception_year <date>, end_year <date>, inception_valuation_date <date>,
#> #   end_valuation_date <date>, anniversary_date <date>, AGE0 <dbl>, AGE1 <dbl>,
#> #   DAY_AGE0 <dbl>, DAY_AGE1 <dbl>, EXPOSURE_YEAR_AGE0 <dbl>,
#> #   EXPOSURE_YEAR_AGE1 <dbl>, EXPOSURE_IN_YEAR <dbl>,
#> #   EXPOSURE_IN_YEAR_LAPSE <dbl>, qx.x <dbl>, qx.y <dbl>,
…
IBNR_factor indicates the IBNR factor of the corresponding current year:

CLAIMS_IBNR shows the associated IBNR claim for each CY and policyholder (NOTE: if the current year in the original data frame is higher than the most recent current year in the IBNR table, this will produce an NA).

Note that the function calculate_IBNR() is independent from the function compute_expectedclaim(). It can be used right after the function optimize_exposure() as following:

lifepolicies %>%
  optimize_exposure(.polnr = Policy_id, .inceptiondate = Inception_date,
                    .termdate = Term_date, .claimdate = Claim_date,
                    .lapsedate = Lapse_date, .birthdate = Birth_date,
                    .gender = Gender) %>%
  calculate_IBNR(.ibnrtable = IBNR_factors_CQP,
                 .ibnrfactor = IBNR_factor, .cy = CY)
#> # A tibble: 25,595 x 36
#>    Policy_id Inception_date Term_date  Birth_date Gender    UY    CY Claim_date
#>        <dbl> <date>         <date>     <date>     <chr>  <dbl> <dbl> <date>    
#>  1   1000503 2013-05-01     2022-05-01 1943-01-15 M       2013  2013 2099-12-31
#>  2   1000503 2013-05-01     2022-05-01 1943-01-15 M       2013  2014 2099-12-31
#>  3   1000503 2013-05-01     2022-05-01 1943-01-15 M       2013  2014 2099-12-31
#>  4   1000503 2013-05-01     2022-05-01 1943-01-15 M       2013  2015 2099-12-31
#>  5   1000503 2013-05-01     2022-05-01 1943-01-15 M       2013  2015 2099-12-31
#>  6   1000503 2013-05-01     2022-05-01 1943-01-15 M       2013  2016 2099-12-31
#>  7   1000503 2013-05-01     2022-05-01 1943-01-15 M       2013  2016 2099-12-31
#>  8   1000503 2013-05-01     2022-05-01 1943-01-15 M       2013  2017 2099-12-31
#>  9   1000503 2013-05-01     2022-05-01 1943-01-15 M       2013  2017 2099-12-31
#> 10   1000503 2013-05-01     2022-05-01 1943-01-15 M       2013  2018 2099-12-31
#> # ... with 25,585 more rows, and 28 more variables: Claim <dbl>,
#> #   Lapse_date <date>, Lapse <dbl>, gender <chr>, inception <date>,
#> #   year_claim <dbl>, year_lapse <dbl>, id_row <int>, policy_duration <dbl>,
#> #   claims <dbl>, lapses <dbl>, renewal_date <date>, valuation_date <date>,
#> #   inception_year <date>, end_year <date>, inception_valuation_date <date>,
#> #   end_valuation_date <date>, anniversary_date <date>, AGE0 <dbl>, AGE1 <dbl>,
#> #   DAY_AGE0 <dbl>, DAY_AGE1 <dbl>, EXPOSURE_YEAR_AGE0 <dbl>,
#> #   EXPOSURE_YEAR_AGE1 <dbl>, EXPOSURE_IN_YEAR <dbl>,
#> #   EXPOSURE_IN_YEAR_LAPSE <dbl>, IBNR_factor <dbl>, CLAIMS_IBNR <dbl>
…
